<svg id="mermaid-1574725891309" width="1267.0574951171875" xmlns="http://www.w3.org/2000/svg" viewBox="-8  0 633.5287475585938 739.09375"><style>



#mermaid-1574725891309 .label {
  font-family: 'trebuchet ms', verdana, arial;
  font-family: var(--mermaid-font-family);
  color: #333; }

#mermaid-1574725891309 .label text {
  fill: #333; }

#mermaid-1574725891309 .node rect,
#mermaid-1574725891309 .node circle,
#mermaid-1574725891309 .node ellipse,
#mermaid-1574725891309 .node polygon {
  fill: #ECECFF;
  stroke: #9370DB;
  stroke-width: 1px; }

#mermaid-1574725891309 .node .label {
  text-align: center; }

#mermaid-1574725891309 .node.clickable {
  cursor: pointer; }

#mermaid-1574725891309 .arrowheadPath {
  fill: #333333; }

#mermaid-1574725891309 .edgePath .path {
  stroke: #333333;
  stroke-width: 1.5px; }

#mermaid-1574725891309 .edgeLabel {
  background-color: #e8e8e8;
  text-align: center; }

#mermaid-1574725891309 .cluster rect {
  fill: #ffffde;
  stroke: #aaaa33;
  stroke-width: 1px; }

#mermaid-1574725891309 .cluster text {
  fill: #333; }

#mermaid-1574725891309 div.mermaidTooltip {
  position: absolute;
  text-align: center;
  max-width: 200px;
  padding: 2px;
  font-family: 'trebuchet ms', verdana, arial;
  font-family: var(--mermaid-font-family);
  font-size: 12px;
  background: #ffffde;
  border: 1px solid #aaaa33;
  border-radius: 2px;
  pointer-events: none;
  z-index: 100; }

#mermaid-1574725891309 .actor {
  stroke: #CCCCFF;
  fill: #ECECFF; }

#mermaid-1574725891309 text.actor {
  fill: black;
  stroke: none; }

#mermaid-1574725891309 .actor-line {
  stroke: grey; }

#mermaid-1574725891309 .messageLine0 {
  stroke-width: 1.5;
  stroke-dasharray: '2 2';
  stroke: #333; }

#mermaid-1574725891309 .messageLine1 {
  stroke-width: 1.5;
  stroke-dasharray: '2 2';
  stroke: #333; }

#mermaid-1574725891309 #arrowhead {
  fill: #333; }

#mermaid-1574725891309 .sequenceNumber {
  fill: white; }

#mermaid-1574725891309 #sequencenumber {
  fill: #333; }

#mermaid-1574725891309 #crosshead path {
  fill: #333 !important;
  stroke: #333 !important; }

#mermaid-1574725891309 .messageText {
  fill: #333;
  stroke: none; }

#mermaid-1574725891309 .labelBox {
  stroke: #CCCCFF;
  fill: #ECECFF; }

#mermaid-1574725891309 .labelText {
  fill: black;
  stroke: none; }

#mermaid-1574725891309 .loopText {
  fill: black;
  stroke: none; }

#mermaid-1574725891309 .loopLine {
  stroke-width: 2;
  stroke-dasharray: '2 2';
  stroke: #CCCCFF; }

#mermaid-1574725891309 .note {
  stroke: #aaaa33;
  fill: #fff5ad; }

#mermaid-1574725891309 .noteText {
  fill: black;
  stroke: none;
  font-family: 'trebuchet ms', verdana, arial;
  font-family: var(--mermaid-font-family);
  font-size: 14px; }

#mermaid-1574725891309 .activation0 {
  fill: #f4f4f4;
  stroke: #666; }

#mermaid-1574725891309 .activation1 {
  fill: #f4f4f4;
  stroke: #666; }

#mermaid-1574725891309 .activation2 {
  fill: #f4f4f4;
  stroke: #666; }


#mermaid-1574725891309 .mermaid-main-font {
  font-family: "trebuchet ms", verdana, arial;
  font-family: var(--mermaid-font-family); }

#mermaid-1574725891309 .section {
  stroke: none;
  opacity: 0.2; }

#mermaid-1574725891309 .section0 {
  fill: rgba(102, 102, 255, 0.49); }

#mermaid-1574725891309 .section2 {
  fill: #fff400; }

#mermaid-1574725891309 .section1,
#mermaid-1574725891309 .section3 {
  fill: white;
  opacity: 0.2; }

#mermaid-1574725891309 .sectionTitle0 {
  fill: #333; }

#mermaid-1574725891309 .sectionTitle1 {
  fill: #333; }

#mermaid-1574725891309 .sectionTitle2 {
  fill: #333; }

#mermaid-1574725891309 .sectionTitle3 {
  fill: #333; }

#mermaid-1574725891309 .sectionTitle {
  text-anchor: start;
  font-size: 11px;
  text-height: 14px;
  font-family: 'trebuchet ms', verdana, arial;
  font-family: var(--mermaid-font-family); }


#mermaid-1574725891309 .grid .tick {
  stroke: lightgrey;
  opacity: 0.3;
  shape-rendering: crispEdges; }
#mermaid-1574725891309   .grid .tick text {
    font-family: 'trebuchet ms', verdana, arial;
    font-family: var(--mermaid-font-family); }

#mermaid-1574725891309 .grid path {
  stroke-width: 0; }


#mermaid-1574725891309 .today {
  fill: none;
  stroke: red;
  stroke-width: 2px; }



#mermaid-1574725891309 .task {
  stroke-width: 2; }

#mermaid-1574725891309 .taskText {
  text-anchor: middle;
  font-family: 'trebuchet ms', verdana, arial;
  font-family: var(--mermaid-font-family); }

#mermaid-1574725891309 .taskText:not([font-size]) {
  font-size: 11px; }

#mermaid-1574725891309 .taskTextOutsideRight {
  fill: black;
  text-anchor: start;
  font-size: 11px;
  font-family: 'trebuchet ms', verdana, arial;
  font-family: var(--mermaid-font-family); }

#mermaid-1574725891309 .taskTextOutsideLeft {
  fill: black;
  text-anchor: end;
  font-size: 11px; }


#mermaid-1574725891309 .task.clickable {
  cursor: pointer; }

#mermaid-1574725891309 .taskText.clickable {
  cursor: pointer;
  fill: #003163 !important;
  font-weight: bold; }

#mermaid-1574725891309 .taskTextOutsideLeft.clickable {
  cursor: pointer;
  fill: #003163 !important;
  font-weight: bold; }

#mermaid-1574725891309 .taskTextOutsideRight.clickable {
  cursor: pointer;
  fill: #003163 !important;
  font-weight: bold; }


#mermaid-1574725891309 .taskText0,
#mermaid-1574725891309 .taskText1,
#mermaid-1574725891309 .taskText2,
#mermaid-1574725891309 .taskText3 {
  fill: white; }

#mermaid-1574725891309 .task0,
#mermaid-1574725891309 .task1,
#mermaid-1574725891309 .task2,
#mermaid-1574725891309 .task3 {
  fill: #8a90dd;
  stroke: #534fbc; }

#mermaid-1574725891309 .taskTextOutside0,
#mermaid-1574725891309 .taskTextOutside2 {
  fill: black; }

#mermaid-1574725891309 .taskTextOutside1,
#mermaid-1574725891309 .taskTextOutside3 {
  fill: black; }


#mermaid-1574725891309 .active0,
#mermaid-1574725891309 .active1,
#mermaid-1574725891309 .active2,
#mermaid-1574725891309 .active3 {
  fill: #bfc7ff;
  stroke: #534fbc; }

#mermaid-1574725891309 .activeText0,
#mermaid-1574725891309 .activeText1,
#mermaid-1574725891309 .activeText2,
#mermaid-1574725891309 .activeText3 {
  fill: black !important; }


#mermaid-1574725891309 .done0,
#mermaid-1574725891309 .done1,
#mermaid-1574725891309 .done2,
#mermaid-1574725891309 .done3 {
  stroke: grey;
  fill: lightgrey;
  stroke-width: 2; }

#mermaid-1574725891309 .doneText0,
#mermaid-1574725891309 .doneText1,
#mermaid-1574725891309 .doneText2,
#mermaid-1574725891309 .doneText3 {
  fill: black !important; }


#mermaid-1574725891309 .crit0,
#mermaid-1574725891309 .crit1,
#mermaid-1574725891309 .crit2,
#mermaid-1574725891309 .crit3 {
  stroke: #ff8888;
  fill: red;
  stroke-width: 2; }

#mermaid-1574725891309 .activeCrit0,
#mermaid-1574725891309 .activeCrit1,
#mermaid-1574725891309 .activeCrit2,
#mermaid-1574725891309 .activeCrit3 {
  stroke: #ff8888;
  fill: #bfc7ff;
  stroke-width: 2; }

#mermaid-1574725891309 .doneCrit0,
#mermaid-1574725891309 .doneCrit1,
#mermaid-1574725891309 .doneCrit2,
#mermaid-1574725891309 .doneCrit3 {
  stroke: #ff8888;
  fill: lightgrey;
  stroke-width: 2;
  cursor: pointer;
  shape-rendering: crispEdges; }

#mermaid-1574725891309 .milestone {
  transform: rotate(45deg) scale(0.8, 0.8); }

#mermaid-1574725891309 .milestoneText {
  font-style: italic; }

#mermaid-1574725891309 .doneCritText0,
#mermaid-1574725891309 .doneCritText1,
#mermaid-1574725891309 .doneCritText2,
#mermaid-1574725891309 .doneCritText3 {
  fill: black !important; }

#mermaid-1574725891309 .activeCritText0,
#mermaid-1574725891309 .activeCritText1,
#mermaid-1574725891309 .activeCritText2,
#mermaid-1574725891309 .activeCritText3 {
  fill: black !important; }

#mermaid-1574725891309 .titleText {
  text-anchor: middle;
  font-size: 18px;
  fill: black;
  font-family: 'trebuchet ms', verdana, arial;
  font-family: var(--mermaid-font-family); }

#mermaid-1574725891309 g.classGroup text {
  fill: #9370DB;
  stroke: none;
  font-family: 'trebuchet ms', verdana, arial;
  font-family: var(--mermaid-font-family);
  font-size: 10px; }
#mermaid-1574725891309   g.classGroup text .title {
    font-weight: bolder; }

#mermaid-1574725891309 g.classGroup rect {
  fill: #ECECFF;
  stroke: #9370DB; }

#mermaid-1574725891309 g.classGroup line {
  stroke: #9370DB;
  stroke-width: 1; }

#mermaid-1574725891309 .classLabel .box {
  stroke: none;
  stroke-width: 0;
  fill: #ECECFF;
  opacity: 0.5; }

#mermaid-1574725891309 .classLabel .label {
  fill: #9370DB;
  font-size: 10px; }

#mermaid-1574725891309 .relation {
  stroke: #9370DB;
  stroke-width: 1;
  fill: none; }

#mermaid-1574725891309 #compositionStart {
  fill: #9370DB;
  stroke: #9370DB;
  stroke-width: 1; }

#mermaid-1574725891309 #compositionEnd {
  fill: #9370DB;
  stroke: #9370DB;
  stroke-width: 1; }

#mermaid-1574725891309 #aggregationStart {
  fill: #ECECFF;
  stroke: #9370DB;
  stroke-width: 1; }

#mermaid-1574725891309 #aggregationEnd {
  fill: #ECECFF;
  stroke: #9370DB;
  stroke-width: 1; }

#mermaid-1574725891309 #dependencyStart {
  fill: #9370DB;
  stroke: #9370DB;
  stroke-width: 1; }

#mermaid-1574725891309 #dependencyEnd {
  fill: #9370DB;
  stroke: #9370DB;
  stroke-width: 1; }

#mermaid-1574725891309 #extensionStart {
  fill: #9370DB;
  stroke: #9370DB;
  stroke-width: 1; }

#mermaid-1574725891309 #extensionEnd {
  fill: #9370DB;
  stroke: #9370DB;
  stroke-width: 1; }

#mermaid-1574725891309 .commit-id,
#mermaid-1574725891309 .commit-msg,
#mermaid-1574725891309 .branch-label {
  fill: lightgrey;
  color: lightgrey;
  font-family: 'trebuchet ms', verdana, arial;
  font-family: var(--mermaid-font-family); }

#mermaid-1574725891309 .pieTitleText {
  text-anchor: middle;
  font-size: 25px;
  fill: black;
  font-family: 'trebuchet ms', verdana, arial;
  font-family: var(--mermaid-font-family); }

#mermaid-1574725891309 .slice {
  font-family: 'trebuchet ms', verdana, arial;
  font-family: var(--mermaid-font-family); }

#mermaid-1574725891309 g.stateGroup text {
  fill: #9370DB;
  stroke: none;
  font-size: 10px;
  font-family: 'trebuchet ms', verdana, arial;
  font-family: var(--mermaid-font-family); }

#mermaid-1574725891309 g.stateGroup text {
  fill: #9370DB;
  stroke: none;
  font-size: 10px; }

#mermaid-1574725891309 g.stateGroup .state-title {
  font-weight: bolder;
  fill: black; }

#mermaid-1574725891309 g.stateGroup rect {
  fill: #ECECFF;
  stroke: #9370DB; }

#mermaid-1574725891309 g.stateGroup line {
  stroke: #9370DB;
  stroke-width: 1; }

#mermaid-1574725891309 .transition {
  stroke: #9370DB;
  stroke-width: 1;
  fill: none; }

#mermaid-1574725891309 .stateGroup .composit {
  fill: white;
  border-bottom: 1px; }

#mermaid-1574725891309 .state-note {
  stroke: #aaaa33;
  fill: #fff5ad; }
#mermaid-1574725891309   .state-note text {
    fill: black;
    stroke: none;
    font-size: 10px; }

#mermaid-1574725891309 .stateLabel .box {
  stroke: none;
  stroke-width: 0;
  fill: #ECECFF;
  opacity: 0.5; }

#mermaid-1574725891309 .stateLabel text {
  fill: black;
  font-size: 10px;
  font-weight: bold;
  font-family: 'trebuchet ms', verdana, arial;
  font-family: var(--mermaid-font-family); }

:root {
  --mermaid-font-family: '"trebuchet ms", verdana, arial';
  --mermaid-font-family: "Comic Sans MS", "Comic Sans", cursive; }

:root { --mermaid-font-family: "trebuchet ms", verdana, arial;}</style><style>#mermaid-1574725891309 {
    color: rgba(0, 0, 0, 0.65);
    font: ;
  }</style><g></g><defs><marker id="dependencyEnd" refX="19" refY="7" markerWidth="20" markerHeight="28" orient="auto"><path d="M 19,7 L9,13 L14,7 L9,1 Z"></path></marker></defs><g id="S_Read1" class="stateGroup" transform="translate(272.8503112792969,0 )" data-x-shift="272.8503112792969"><rect x="8" y="8" width="55.828125" height="27.34375" rx="5"></rect><text x="16" y="26" font-size="24" class="state-title">S_Read1</text></g><g id="Pause1" class="stateGroup" transform="translate(0,114.34375 )" data-x-shift="0"><rect x="0" y="-33" width="617.5287475585938" height="405.71875" rx="5"></rect><rect x="0" y="-33" width="617.5287475585938" height="30" rx="5"></rect><rect x="0" y="-9" class="composit" width="617.5287475585938" height="378.71875" rx="0"></rect><g id="S_Pause" class="stateGroup" transform="translate(0,89.671875 )" data-x-shift="0"><rect x="8" y="8" width="54.140625" height="27.34375" rx="5"></rect><text x="16" y="26" font-size="24" class="state-title">S_Pause</text></g><g id="F_PauseDone" class="stateGroup" transform="translate(522.935,136.34375 )" data-x-shift="522.935"><rect x="8" y="8" width="78.59375" height="27.34375" rx="5"></rect><text x="16" y="26" font-size="24" class="state-title">F_PauseDone</text></g><g id="Wait" class="stateGroup" transform="translate(179.13687499999997,89.671875 )" data-x-shift="179.13687499999997"><rect x="8" y="8" width="37.125" height="27.34375" rx="5"></rect><text x="16" y="26" font-size="24" class="state-title">Wait</text></g><g id="Wait2" class="stateGroup" transform="translate(349.93437499999993,43 )" data-x-shift="349.93437499999993"><rect x="8" y="8" width="42.984375" height="27.34375" rx="5"></rect><text x="16" y="26" font-size="24" class="state-title">Wait2</text></g><g id="Wait3" class="stateGroup" transform="translate(349.93437499999993,136.34375 )" data-x-shift="349.93437499999993"><rect x="8" y="8" width="42.984375" height="27.34375" rx="5"></rect><text x="16" y="26" font-size="24" class="state-title">Wait3</text></g><g id="Listen" class="stateGroup" transform="translate(175.48062499999997,276.359375 )" data-x-shift="175.48062499999997"><rect x="8" y="8" width="44.4375" height="27.34375" rx="5"></rect><text x="16" y="26" font-size="24" class="state-title">Listen</text></g><g id="Listen2" class="stateGroup" transform="translate(346.27812499999993,229.6875 )" data-x-shift="346.27812499999993"><rect x="8" y="8" width="50.296875" height="27.34375" rx="5"></rect><text x="16" y="26" font-size="24" class="state-title">Listen2</text></g><g id="Listen3" class="stateGroup" transform="translate(346.27812499999993,323.03125 )" data-x-shift="346.27812499999993"><rect x="8" y="8" width="50.296875" height="27.34375" rx="5"></rect><text x="16" y="26" font-size="24" class="state-title">Listen3</text></g><path d="M53.47004238169035,89.671875L65.02680615140862,76.05989583333333C76.5835699211269,62.447916666666664,99.69709746056344,35.223958333333336,125.06865289694838,21.611979166666668C150.44020833333332,8,178.06979166666665,8,206.1177083333333,8C234.16562499999998,8,262.631875,8,291.58640625,8C320.5409375,8,349.98374999999993,8,379.4265625,8C408.86937499999993,8,438.31218749999994,8,467.64570101747205,29.390625C496.9792145349442,50.78125,526.2034290698884,93.5625,540.8155363373606,114.953125L555.4276436048327,136.34375" id="edge2687" class="transition" marker-end="url(#dependencyEnd)"></path><g class="stateLabel"><rect class="box" x="265.6875" y="-5.34375" width="107.484375" height="19.34375"></rect><text text-anchor="middle" x="319.4293401513433" y="8">3s_timeout_S_PAUSE</text><text text-anchor="middle" x="319.4293401513433" y="19.34375"></text></g><path d="M70.140625,111.34375L78.91895833333332,111.34375C87.69729166666666,111.34375,105.25395833333333,111.34375,123.42,111.34375C141.58604166666666,111.34375,160.3614583333333,111.34375,169.74916666666664,111.34375L179.13687499999997,111.34375" id="edge2688" class="transition" marker-end="url(#dependencyEnd)"></path><g class="stateLabel"><rect class="box" x="75.375" y="98" width="98.765625" height="19.34375"></rect><text text-anchor="middle" x="124.63874999999999" y="111.34375">humanAttentionOff</text><text text-anchor="middle" x="124.63874999999999" y="122.6875"></text></g><path d="M232.26187499999997,96.826890213557L242.06791666666663,91.4677210112975C251.87395833333332,86.10855180903799,271.4860416666666,75.390213404519,291.098125,70.03104420225951C310.7102083333333,64.671875,330.3222916666666,64.671875,340.1283333333333,64.671875L349.93437499999993,64.671875" id="edge2689" class="transition" marker-end="url(#dependencyEnd)"></path><g class="stateLabel"><rect class="box" x="233.75" y="53.296875" width="107.484375" height="19.359375"></rect><text text-anchor="middle" x="287.49450253248636" y="66.64131620787468">3s_timeout_S_PAUSE</text><text text-anchor="middle" x="287.49450253248636" y="78.00069120787468"></text></g><path d="M408.91874999999993,64.671875L418.7247916666666,64.671875C428.53083333333325,64.671875,448.1429166666666,64.671875,471.06304787760854,76.6171875C493.98317908855034,88.5625,520.2113581771007,112.453125,533.3254477213759,124.3984375L546.4395372656511,136.34375" id="edge2690" class="transition" marker-end="url(#dependencyEnd)"></path><g class="stateLabel"><rect class="box" x="436.828125" y="67.359375" width="97.03125" height="19.34375"></rect><text text-anchor="middle" x="485.3489555017657" y="80.69779093340401">humanAttentionOn</text><text text-anchor="middle" x="485.3489555017657" y="92.04154093340401"></text></g><path d="M232.26187499999997,125.860609786443L242.06791666666663,131.2197789887025C251.87395833333332,136.578948190962,271.4860416666666,147.29728659548098,291.098125,152.6564557977405C310.7102083333333,158.015625,330.3222916666666,158.015625,340.1283333333333,158.015625L349.93437499999993,158.015625" id="edge2691" class="transition" marker-end="url(#dependencyEnd)"></path><g class="stateLabel"><rect class="box" x="238.984375" y="142.703125" width="97.03125" height="19.34375"></rect><text text-anchor="middle" x="287.49450253248636" y="156.0461837921253">humanAttentionOn</text><text text-anchor="middle" x="287.49450253248636" y="167.3899337921253"></text></g><path d="M408.91874999999993,158.015625L418.7247916666666,158.015625C428.53083333333325,158.015625,448.1429166666666,158.015625,467.14562499999994,158.015625C486.14833333333326,158.015625,504.5416666666666,158.015625,513.7383333333333,158.015625L522.935,158.015625" id="edge2692" class="transition" marker-end="url(#dependencyEnd)"></path><g class="stateLabel"><rect class="box" x="412.1875" y="144.671875" width="107.46875" height="19.34375"></rect><text text-anchor="middle" x="465.92687499999994" y="158.015625">3s_timeout_S_PAUSE</text><text text-anchor="middle" x="465.92687499999994" y="169.359375"></text></g><path d="M45.255767257072314,133.015625L58.181576880893594,160.51822916666666C71.10738650471488,188.02083333333334,96.95900575235743,243.02604166666666,118.66314870951203,270.5286458333333C140.36729166666666,298.03125,157.9239583333333,298.03125,166.70229166666664,298.03125L175.48062499999997,298.03125" id="edge2693" class="transition" marker-end="url(#dependencyEnd)"></path><g class="stateLabel"><rect class="box" x="54.703125" y="226.015625" width="81.0625" height="19.40625"></rect><text text-anchor="middle" x="95.23478764628322" y="239.35737491012043">humanSpeaking</text><text text-anchor="middle" x="95.23478764628322" y="250.76362491012043"></text></g><path d="M235.91812499999997,281.51618716059954L245.11479166666663,276.49005180049966C254.31145833333332,271.4639164403997,272.7047916666666,261.41164572019983,291.098125,256.38551036009994C309.4914583333333,251.359375,327.8847916666666,251.359375,337.0814583333333,251.359375L346.27812499999993,251.359375" id="edge2694" class="transition" marker-end="url(#dependencyEnd)"></path><g class="stateLabel"><rect class="box" x="254.546875" y="239.859375" width="66.34375" height="19.359375"></rect><text text-anchor="middle" x="287.7184417646238" y="253.206429593903">humanSilent</text><text text-anchor="middle" x="287.7184417646238" y="264.565804593903"></text></g><path d="M412.57499999999993,251.359375L421.7716666666666,251.359375C430.96833333333325,251.359375,449.3616666666666,251.359375,471.67242287760854,239.4140625C493.98317908855034,227.46875,520.2113581771007,203.578125,533.3254477213759,191.6328125L546.4395372656511,179.6875" id="edge2695" class="transition" marker-end="url(#dependencyEnd)"></path><g class="stateLabel"><rect class="box" x="432.96875" y="220.765625" width="107.46875" height="19.34375"></rect><text text-anchor="middle" x="486.7004568276564" y="234.10240862825452">3s_timeout_S_PAUSE</text><text text-anchor="middle" x="486.7004568276564" y="245.44615862825452"></text></g><path d="M235.91812499999997,314.54631283940046L245.11479166666663,319.57244819950034C254.31145833333332,324.5985835596003,272.7047916666666,334.65085427980017,291.098125,339.67698963990006C309.4914583333333,344.703125,327.8847916666666,344.703125,337.0814583333333,344.703125L346.27812499999993,344.703125" id="edge2696" class="transition" marker-end="url(#dependencyEnd)"></path><g class="stateLabel"><rect class="box" x="233.984375" y="329.515625" width="107.46875" height="19.34375"></rect><text text-anchor="middle" x="287.7184417646238" y="342.856070406097">3s_timeout_S_PAUSE</text><text text-anchor="middle" x="287.7184417646238" y="354.199820406097"></text></g><path d="M412.57499999999993,344.703125L421.7716666666666,344.703125C430.96833333333325,344.703125,449.3616666666666,344.703125,473.65511768880424,317.2005208333333C497.9485687109418,289.6979166666667,528.1421374218836,234.69270833333334,543.2389217773547,207.19010416666666L558.3357061328255,179.6875" id="edge2697" class="transition" marker-end="url(#dependencyEnd)"></path><g class="stateLabel"><rect class="box" x="466.59375" y="273.046875" width="66.34375" height="19.34375"></rect><text text-anchor="middle" x="499.76923651876274" y="286.38111059336904">humanSilent</text><text text-anchor="middle" x="499.76923651876274" y="297.72486059336904"></text></g><text x="288.2487487792969" y="-15" font-size="24" class="state-title">Pause1</text><line x1="0" y1="-9" y2="-9" class="descr-divider" x2="617.5287475585938"></line></g><g id="Read2" class="stateGroup" transform="translate(278.3346862792969,537.0625 )" data-x-shift="278.3346862792969"><rect x="8" y="8" width="44.859375" height="27.34375" rx="5"></rect><text x="16" y="26" font-size="24" class="state-title">Read2</text></g><g id="Pause2" class="stateGroup" transform="translate(276.2487487792969,616.40625 )" data-x-shift="276.2487487792969"><rect x="8" y="8" width="49.03125" height="27.34375" rx="5"></rect><text x="16" y="26" font-size="24" class="state-title">Pause2</text></g><g id="F_Done" class="stateGroup" transform="translate(337.8971862792969,695.75 )" data-x-shift="337.8971862792969"><rect x="8" y="8" width="51.4375" height="27.34375" rx="5"></rect><text x="16" y="26" font-size="24" class="state-title">F_Done</text></g><g id="ANY_STATE" class="stateGroup" transform="translate(391.2799987792969,616.40625 )" data-x-shift="391.2799987792969"><rect x="8" y="8" width="70.375" height="27.34375" rx="5"></rect><text x="16" y="26" font-size="24" class="state-title">ANY_STATE</text></g><path d="M308.7643737792969,43.34375L308.7643737792969,46.34375C308.7643737792969,49.34375,308.7643737792969,55.34375,308.7643737792969,61.34375C308.7643737792969,67.34375,308.7643737792969,73.34375,308.7643737792969,76.34375L308.7643737792969,79.34375" id="edge2698" class="transition" marker-end="url(#dependencyEnd)"></path><g class="stateLabel"><rect class="box" x="285.40625" y="48" width="46.71875" height="19.40625"></rect><text text-anchor="middle" x="308.7643737792969" y="61.34375">sayDone</text><text text-anchor="middle" x="308.7643737792969" y="72.75"></text></g><path d="M308.7643737792969,501.0625L308.7643737792969,504.0625C308.7643737792969,507.0625,308.7643737792969,513.0625,308.7643737792969,519.0625C308.7643737792969,525.0625,308.7643737792969,531.0625,308.7643737792969,534.0625L308.7643737792969,537.0625" id="edge2699" class="transition" marker-end="url(#dependencyEnd)"></path><g class="stateLabel"><rect class="box" x="279.3125" y="505.71875" width="58.90625" height="19.34375"></rect><text text-anchor="middle" x="308.7643737792969" y="519.0625">PauseDone</text><text text-anchor="middle" x="308.7643737792969" y="530.40625"></text></g><path d="M308.7643737792969,580.40625L308.7643737792969,583.40625C308.7643737792969,586.40625,308.7643737792969,592.40625,308.7643737792969,598.40625C308.7643737792969,604.40625,308.7643737792969,610.40625,308.7643737792969,613.40625L308.7643737792969,616.40625" id="edge2700" class="transition" marker-end="url(#dependencyEnd)"></path><g class="stateLabel"><rect class="box" x="279.3125" y="585.0625" width="58.90625" height="19.34375"></rect><text text-anchor="middle" x="308.7643737792969" y="598.40625">PauseDone</text><text text-anchor="middle" x="308.7643737792969" y="609.75"></text></g><path d="M308.7643737792969,659.75L308.7643737792969,662.75C308.7643737792969,665.75,308.7643737792969,671.75,313.6198425292969,677.8147694608452C318.4753112792969,683.8795389216906,328.1862487792969,690.009077843381,333.0417175292969,693.0738473042262L337.8971862792969,696.1386167650714" id="edge2701" class="transition" marker-end="url(#dependencyEnd)"></path><g class="stateLabel"><rect class="box" x="286.265625" y="668.796875" width="58.90625" height="19.34375"></rect><text text-anchor="middle" x="315.72007636508573" y="682.1404360137522">PauseDone</text><text text-anchor="middle" x="315.72007636508573" y="693.4841860137522"></text></g><path d="M434.4674987792969,659.75L434.4674987792969,662.75C434.4674987792969,665.75,434.4674987792969,671.75,429.6120300292969,677.8147694608452C424.7565612792969,683.8795389216906,415.0456237792969,690.009077843381,410.1901550292969,693.0738473042262L405.3346862792969,696.1386167650714" id="edge2702" class="transition" marker-end="url(#dependencyEnd)"></path><g class="stateLabel"><rect class="box" x="364.03125" y="668.796875" width="126.953125" height="19.34375"></rect><text text-anchor="middle" x="427.511796193508" y="682.1404360137522">10s_timeout_ANY_STATE</text><text text-anchor="middle" x="427.511796193508" y="693.4841860137522"></text></g></svg>